{
  "data":
    {
      "name": "Canon 4000D Kit 18-55 DC III",
      "inStock" : true,
      "category": "Фотоаппараты",
      "id": "123456",
      "price": 21473,
      "images": ["1", "2", "3", "4", "5", "6", "7", "8"],
      "code": "С000008595",
      "sale": {
        "discount": 20,
        "endDate": "11-11-2001"
      },
      "characteristics": [
        {
          "title": "mock",
          "value": "mock"
        },
        {
          "title": "mock",
          "value": "mock"
        },
        {
          "title": "mock",
          "value": "mock"
        }
      ],
      "accessories": ["mock", "mock", "mock"]
    }
}
