<svg
        xmlns="http://www.w3.org/2000/svg"
        width="512" height="512"
        viewBox="0 0 27 27">
    <circle
            cx="13.5" cy="13.5"
            r="13.5"
            fill="#51AD33"/>
    <path d="M11.2435 18.3503C10.8846 18.7681 10.9325 19.3977 11.3503 19.7565C11.7681 20.1154 12.3977 20.0675 12.7565 19.6497L11.2435 18.3503ZM17 13.1784L17.7565 13.8281C18.0919 13.4376 18.075 12.856 17.7174 12.4857L17 13.1784ZM12.7174 7.30731C12.3348 6.91111 11.7035 6.90005 11.3073 7.28261C10.9111 7.66516 10.9 8.29648 11.2826 8.69269L12.7174 7.30731ZM12.7565 19.6497L17.7565 13.8281L16.2435 12.5286L11.2435 18.3503L12.7565 19.6497ZM17.7174 12.4857L12.7174 7.30731L11.2826 8.69269L16.2826 13.871L17.7174 12.4857Z"
          fill="white"/>
</svg>
