{
  "data" : [
    {
      "id" : "ded494b6-51d6-11eb-ae93-0242ac130002",
      "address" : "г.Киев, ул. Б. Васильковская (Красноармейская), 132",
      "label" : "Либедская 1"
    },
    {
      "id" : "c16e14dd-2bb4-4fd6-822e-df813c6a3997",
      "address" : "г.Киев, ул. Лаврская, 15",
      "label" : "Лавра 1"
    },
    {
      "id" : "d83ef370-8e49-45e7-8c1c-1d26a92490c6",
      "address" : "г.Киев, просп. Оболонский, 10",
      "label" : "Оболонь 1"
    },
    {
      "id" : "d3a23442-c7ec-4a7f-9911-d5b59897e0f6",
      "address" : "г.Киев, просп. Оболонский, 22",
      "label" : "Оболонь 2"
    },
    {
      "id" : "1bc6c5b1-44b5-42ad-b3c3-f60dc795ee68",
      "address" : "ТЦ 'Гулливер', офис 115",
      "label" : "Гулливер 1"
    }
  ]
}
